0 0.2801246703996536 0.9742141241176446 0.05817617591180557 0.019667643815484227
0 0.45179899543777857 0.9199533229930228 0.03884560087368065 0.060434755447881724
0 0.6308494093817367 0.8463962186500925 0.04985583605604162 0.0643245799535137
0 0.7991077936904174 0.7798539388127942 0.040226262917777866 0.05273151609154354
0 0.9650769793858688 0.7158192999409886 0.040153527735416715 0.04960651609154336
0 0.20886334697704925 0.7702639514732683 0.05465243882958344 0.06933986188449896
0 0.7250844929692366 0.5580989071339106 0.04520470364722229 0.06555929802252862
0 0.9243207735544449 0.5113010447452085 0.08997168977951375 0.04529035668871906
0 0.13843782494121576 0.5686028985070612 0.054361498100138926 0.056839861884498966
0 0.30816779027194485 0.49804510802610125 0.04669446846486114 0.06254355866619044
0 0.4764079907850351 0.4307215781888029 0.04665810087368065 0.060981058666190434
0 0.6738629126127782 0.34100959612193177 0.03393989532659738 0.05073197351689647
0 0.8143054214464934 0.28971525787054475 0.03880923328249999 0.05887225544788164
0 0.08183841356270863 0.3558022497478984 0.0821591897795139 0.044744053470410175
0 0.23964960714194466 0.27747016409440145 0.0609751740119445 0.07290190445914586
0 0.4079807266329863 0.21405288425710323 0.043533100873680654 0.06076253737886681
0 0.580290831306389 0.15348745281065063 0.04647626291777769 0.053168558666190344
0 0.7444974952503474 0.08096832458250673 0.05785017401194459 0.07268338317182246